{
  "exchanges": [
    {
      "name": "notify",
      "vhost": "/",
      "type": "fanout",
      "durable": true,
      "auto_delete": false,
      "internal": false,
      "arguments": {}
    }
  ],
  "queues": [
    {
      "name": "notify",
      "vhost": "/",
      "durable": true,
      "auto_delete": false,
      "arguments": {}
    }
  ],
  "bindings": [
    {
      "source": "notify",
      "vhost": "/",
      "destination": "notify",
      "destination_type": "queue",
      "routing_key": "*",
      "arguments": {}
    }
  ]
}
